<?xml version="1.0" encoding="UTF-8"?>
<testng-results total="1" passed="1" failed="0" skipped="0">
  <reporter-output>
  </reporter-output>
  <suite started-at="2021-05-18T19:21:40Z" name="Surefire suite" finished-at="2021-05-18T19:21:40Z" duration-ms="30">
    <groups>
    </groups>
    <test started-at="2021-05-18T19:21:40Z" name="Surefire test" finished-at="2021-05-18T19:21:40Z" duration-ms="30">
      <class name="tests.AppTest">
        <test-method signature="shouldAnswerWithTrue()[pri:0, instance:shouldAnswerWithTrue(tests.AppTest)]" started-at="2021-05-18T21:21:40Z" name="shouldAnswerWithTrue" finished-at="2021-05-18T21:21:40Z" duration-ms="2" status="PASS">
          <reporter-output>
          </reporter-output>
        </test-method> <!-- shouldAnswerWithTrue -->
      </class> <!-- tests.AppTest -->
    </test> <!-- Surefire test -->
  </suite> <!-- Surefire suite -->
</testng-results>
